Ejercicio Práctico 2
…
## 
## Attaching package: 'dplyr'

## The following objects are masked from 'package:stats':
## 
##     filter, lag

## The following objects are masked from 'package:base':
## 
##     intersect, setdiff, setequal, union

terrorismo |>
  count(iyear) #con la función count contamos la frecuencia de la variable años

## # A tibble: 47 × 2
##    iyear     n
##    <fct> <int>
##  1 1970    651
##  2 1971    471
##  3 1972    568
##  4 1973    473
##  5 1974    581
##  6 1975    740
##  7 1976    923
##  8 1977   1319
##  9 1978   1526
## 10 1979   2662
## # ℹ 37 more rows

terrorismo |> 
  group_by(iyear) |> 
  count(iyear) |> 
  arrange(desc(n))

## # A tibble: 47 × 2
## # Groups:   iyear [47]
##    iyear     n
##    <fct> <int>
##  1 2014  16903
##  2 2015  14965
##  3 2016  13587
##  4 2013  12036
##  5 2017  10900
##  6 2012   8522
##  7 2011   5076
##  8 1992   5071
##  9 2010   4825
## 10 2008   4805
## # ℹ 37 more rows
…
Los años con mayor presencia de actos de terrorismo han sido los años
2014, 2015, 2016, 2013 y 2017

###Pregunta D) Presente un gráfico de línea para visualizar la
evolución del número de ataques por año a nivel mundial. Coloque como
título “Evolución del número de ataques terroristas según continente”
¿Qué puede visualizar en el gráfico? (3 puntos)

terrorismoYEAR <- terrorismo |>
  group_by(iyear) |>
  mutate(nueva_variable = n())
print(terrorismoYEAR)

## # A tibble: 181,690 × 7
## # Groups:   iyear [47]
##    iyear country_txt        region_txt  attacktype1_txt targtype1_txt continente
##    <fct> <chr>              <chr>       <chr>           <chr>         <chr>     
##  1 1970  Dominican Republic Central Am… Assassination   Private Citi… Americas  
##  2 1970  Mexico             North Amer… Hostage Taking… Government (… Americas  
##  3 1970  Philippines        Southeast … Assassination   Journalists … Asia      
##  4 1970  Greece             Western Eu… Bombing/Explos… Government (… Europe    
##  5 1970  Japan              East Asia   Facility/Infra… Government (… Asia      
##  6 1970  United States      North Amer… Armed Assault   Police        Americas  
##  7 1970  Uruguay            South Amer… Assassination   Police        Americas  
##  8 1970  United States      North Amer… Bombing/Explos… Utilities     Americas  
##  9 1970  United States      North Amer… Facility/Infra… Military      Americas  
## 10 1970  United States      North Amer… Facility/Infra… Government (… Americas  
## # ℹ 181,680 more rows
## # ℹ 1 more variable: nueva_variable <int>
…
