Reporte de fallecimientos Perú 2017-2023
…
    # QUEDARNOS SOLO CON LAS DOS PRIMERAS PALABRAS
    CAUSA = str_replace_all(CAUSA, "\\b(\\w+\\s+\\w+).*", "\\1"),
    CAUSA = str_replace_all(CAUSA, "\\bNO|POR\\b", ""),
    
    CAUSA = str_trim(CAUSA),
    CAUSA = str_squish(CAUSA),
    CAUSA = ifelse(CAUSA=="","INDETERMINADO", CAUSA)) |> 
  arrange(CAUSA)

d1

## # A tibble: 72,710 × 2
##    `DEBIDO A (CAUSA A)`                     CAUSA        
##    <chr>                                    <chr>        
##  1 ABDOMEN AGUDO QUIRÚRGICO                 ABDOMEN AGUDO
##  2 ABDOMEN AGUDO                            ABDOMEN AGUDO
##  3 ABDOMEN AGUDO POR OBSTRUCCION INTESTINAL ABDOMEN AGUDO
##  4 ABDOMEN AGUDO QUIRARGICO                 ABDOMEN AGUDO
##  5 ABDOMEN AGUDO QUIRURGICO                 ABDOMEN AGUDO
##  6 ABDOMEN AGUDO EXPUESTO                   ABDOMEN AGUDO
##  7 ABDOMEN AGUDO POR TROMBOSIS INTESTINAL   ABDOMEN AGUDO
##  8 ABDOMEN  AGUDO                           ABDOMEN AGUDO
##  9 ABDOMEN AGUDO PBE NO CONFIRMADA          ABDOMEN AGUDO
## 10 ABDOMEN AGUDO POR COLEDOCOLITIASIS       ABDOMEN AGUDO
## # ℹ 72,700 more rows
…
CIUDADES EXTRANJERAS

Asimismo, de la exporación de la base de datos se observa que sí se ha
registrado la ciudad de domicilio para muchos países extrnajeros. Tal es
el caso de Amazonas que también es un departamento de Colombia como se
puede ver a continuación:

data2 |> 
  filter(!is.na(`PAIS DOMICILIO`),`PAIS DOMICILIO` != "PERU" & `PAIS DOMICILIO` != "SIN REGISTRO") |> 
  group_by(`DEPARTAMENTO DOMICILIO`) |> 
  count()

## # A tibble: 112 × 2
## # Groups:   DEPARTAMENTO DOMICILIO [112]
##    `DEPARTAMENTO DOMICILIO`     n
##    <chr>                    <int>
##  1 AICHI                        1
##  2 AMAZONAS                     1
##  3 ANZOATEGUI                   8
##  4 APURE                        1
##  5 ARAGUA                       3
##  6 ARICA                        2
##  7 ASUNCION                     1
##  8 BARCELONA                    9
##  9 BARINAS                      1
## 10 BARQUISIMETO                 4
## # ℹ 102 more rows
…
Si nos enfocamos en el top 3 de años, vemos que es el periodo de la
pandemia por COVID-19; sin embargo el SINADEF indica que hubo pocos
casos registrados como COVID, siendo Lima el primero con solo 8320.

data2 |>
  group_by(`DEPARTAMENTO DOMICILIO`) |> 
  count(n_CAUSA) |> 
  filter(n_CAUSA == "COVID") |> 
  arrange(desc(n))

## # A tibble: 28 × 3
## # Groups:   DEPARTAMENTO DOMICILIO [28]
##    `DEPARTAMENTO DOMICILIO` n_CAUSA     n
##    <chr>                    <chr>   <int>
##  1 LIMA                     COVID    8320
##  2 PIURA                    COVID    1290
##  3 UCAYALI                  COVID     797
##  4 CUSCO                    COVID     790
##  5 PUNO                     COVID     777
##  6 JUNIN                    COVID     659
##  7 AREQUIPA                 COVID     657
##  8 ICA                      COVID     649
##  9 LA LIBERTAD              COVID     536
## 10 ANCASH                   COVID     490
## # ℹ 18 more rows

Profundizando en el tema, revisamos las muertes registradas en el
SINADEF por causa, mostrando resultados más significativos. Observamos
que las muertes por insuficiencia respiratoria, infarto y shock son las
más comunes durante el periodo elegido.

data2 |>
  group_by(n_CAUSA) |> 
  count(n_CAUSA) |> 
  arrange(desc(n))

## # A tibble: 13,939 × 2
## # Groups:   n_CAUSA [13,939]
##    n_CAUSA                         n
##    <chr>                       <int>
##  1 INSUFICIENCIA RESPIRATORIA 356115
##  2 INFARTO                     75781
##  3 SHOCK                       55527
##  4 PARO                        53067
##  5 FALLA MULTIORGANICA         46907
##  6 SEPSIS                      41715
##  7 NEUMONIA                    28380
##  8 COVID                       18762
##  9 CANCER                      17126
## 10 EDEMA                       15933
## # ℹ 13,929 more rows
…
